…
Now we can do some really quick summaries.

``` r

my_db |>
  dplyr::group_by(trackerCode) |>
  dplyr::tally() |>
  dplyr::arrange(-n) |>
  dplyr::collect()
#> # A tibble: 58 × 2
#>    trackerCode        n
#>    <chr>          <int>
#>  1 FACT.SCDNRGPD   1784
#>  2 ACT.LICABLE     1290
#>  3 ACT.MUFISH      1028
#>  4 ACT.SBUSOMAS01   974
#>  5 ACT.HMSWEA       757
#>  6 ACT.NCATS2021    569
#>  7 ACT.MSRPWS       507
#>  8 ACT.SBUINGRAM    394
#>  9 ACT.MUEMPIRE     281
#> 10 ACT.MUS4F        246
#> # ℹ 48 more rows
```
…
